0.000000
-191.279999
-36.560001
107.970001
-272.029999
107.970001
107.970001
67.970001
   0.00  107.97    0.00    0.00    0.00    0.00    0.00    0.00 
   0.00    0.00    0.00    0.00    0.00    0.00    0.00    0.00 
   0.00    0.00    0.00    0.00    0.00    0.00    0.00    0.00 
   0.00   83.31   24.66    0.00    0.00    0.00    0.00    0.00 
   0.00    0.00    0.00    0.00    0.00    0.00    0.00    0.00 
   0.00    0.00    0.00    0.00  107.97    0.00    0.00    0.00 
   0.00    0.00    0.00    0.00  107.97    0.00    0.00    0.00 
   0.00    0.00   11.90    0.00   56.07    0.00    0.00    0.00 
72.50
