0.000000
-261.440002
33.000000
177.529999
-522.469971
168.529999
152.529999
74.779999
   0.00    0.00    0.00    0.00  177.53    0.00    0.00    0.00 
   0.00    0.00    0.00    0.00    0.00    0.00    0.00    0.00 
   0.00   33.00    0.00    0.00    0.00    0.00    0.00    0.00 
   0.00    0.00    0.00    0.00  176.41    0.00    0.00    0.00 
   0.00    0.00    0.00    0.00    0.00    0.00    0.00    0.00 
   0.00    0.00    0.00    0.00  168.53    0.00    0.00    0.00 
   0.00  152.53    0.00    0.00    0.00    0.00    0.00    0.00 
   0.00   74.78    0.00    0.00    0.00    0.00    0.00    0.00 
75.57
