0.000000
-478.880005
2.010000
149.479996
-270.519989
149.479996
149.479996
149.479996
   0.00  149.48    0.00    0.00    0.00    0.00    0.00    0.00 
   0.00    0.00    0.00    0.00    0.00    0.00    0.00    0.00 
   0.00    0.00    0.00    0.00    0.00    0.00    0.00    0.00 
   0.00  149.48    0.00    0.00    0.00    0.00    0.00    0.00 
   0.00    0.00    0.00    0.00    0.00    0.00    0.00    0.00 
   0.00  149.48    0.00    0.00    0.00    0.00    0.00    0.00 
   0.00    0.00    0.00    0.00  149.48    0.00    0.00    0.00 
   0.00   30.44    0.00    0.00  119.04    0.00    0.00    0.00 
74.68
