0.000000
-203.679993
9.580000
104.110001
-355.890015
154.110001
104.839996
104.110001
   0.00    0.00    0.00    0.00   82.82    0.00    0.00    0.00 
   0.00    0.00    0.00    0.00    0.00    0.00    0.00    0.00 
   0.00    0.00    0.00    0.00    9.58    0.00    0.00    0.00 
   0.00  104.11    0.00    0.00    0.00    0.00    0.00    0.00 
   0.00    0.00    0.00    0.00    0.00    0.00    0.00    0.00 
   0.00    0.00    0.00    0.00  154.11    0.00    0.00    0.00 
   0.00   99.57    0.00    0.00    0.00    0.00    0.00    0.00 
   0.00    0.00    0.00    0.00  104.11    0.00    0.00    0.00 
69.86
