0.000000
-308.869995
0.240000
144.770004
-395.230011
144.770004
144.770004
124.769997
   0.00  144.77    0.00    0.00    0.00    0.00    0.00    0.00 
   0.00    0.00    0.00    0.00    0.00    0.00    0.00    0.00 
   0.00    0.00    0.00    0.00    0.00    0.00    0.00    0.00 
   0.00    0.00    0.00    0.00  144.77    0.00    0.00    0.00 
   0.00    0.00    0.00    0.00    0.00    0.00    0.00    0.00 
   0.00    0.00    0.00    0.00  144.77    0.00    0.00    0.00 
   0.00  144.77    0.00    0.00    0.00    0.00    0.00    0.00 
   0.00   19.08    0.00    0.00  105.69    0.00    0.00    0.00 
73.60
