0.000000
-458.760010
173.449997
33.450001
-56.549999
173.449997
-36.549999
173.449997
   0.00    0.00    0.00    0.00    0.00    0.00   31.51    0.00 
   0.00    0.00    0.00    0.00    0.00    0.00    0.00    0.00 
   0.00  173.45    0.00    0.00    0.00    0.00    0.00    0.00 
  33.45    0.00    0.00    0.00    0.00    0.00    0.00    0.00 
   0.00    0.00    0.00    0.00    0.00    0.00    0.00    0.00 
   0.00  173.45    0.00    0.00    0.00    0.00    0.00    0.00 
   0.00    0.00    0.00    0.00    0.00    0.00    0.00    0.00 
   0.00  111.86    0.00    0.00   56.55    0.00    0.00    0.00 
46.51
