0.000000
150.419998
150.419998
20.420000
-344.109985
150.419998
88.419998
150.419998
   0.00    0.00    0.00    0.00    0.00    0.00    0.00    0.00 
 150.42    0.00    0.00    0.00    0.00    0.00    0.00    0.00 
 150.42    0.00    0.00    0.00    0.00    0.00    0.00    0.00 
   0.00    0.00    0.00    0.00   20.42    0.00    0.00    0.00 
   0.00    0.00    0.00    0.00    0.00    0.00    0.00    0.00 
   0.00    0.00    0.00    0.00  150.42    0.00    0.00    0.00 
   0.00    0.00    0.00    0.00   88.42    0.00    0.00    0.00 
  65.55    0.00    0.00    0.00   84.85    0.00    0.00    0.00 
77.76
